^E:\WORKSPACE\PROI\MAIN.CPP|E:\WORKSPACE\PROI\MATRIX.CPP|E:\WORKSPACE\PROI\POLYNOMIAL.CPP
E:\WORKSPACE\PROI\DEBUG\VC120.PDB
E:\WORKSPACE\PROI\DEBUG\VC120.IDB
E:\WORKSPACE\PROI\DEBUG\MAIN.OBJ
E:\WORKSPACE\PROI\DEBUG\POLYNOMIAL.OBJ
E:\WORKSPACE\PROI\DEBUG\MATRIX.OBJ
^E:\WORKSPACE\PROI\MAIN.CPP
E:\WORKSPACE\PROI\DEBUG\VC120.PDB
E:\WORKSPACE\PROI\DEBUG\VC120.IDB
E:\WORKSPACE\PROI\DEBUG\MAIN.OBJ
^E:\WORKSPACE\PROI\MATRIX.CPP
E:\WORKSPACE\PROI\DEBUG\VC120.PDB
E:\WORKSPACE\PROI\DEBUG\VC120.IDB
E:\WORKSPACE\PROI\DEBUG\MATRIX.OBJ
^E:\WORKSPACE\PROI\POLYNOMIAL.CPP
E:\WORKSPACE\PROI\DEBUG\VC120.PDB
E:\WORKSPACE\PROI\DEBUG\VC120.IDB
E:\WORKSPACE\PROI\DEBUG\POLYNOMIAL.OBJ
^E:\WORKSPACE\PROI\MAIN.CPP|E:\WORKSPACE\PROI\MATRIX.CPP
E:\WORKSPACE\PROI\DEBUG\VC120.PDB
E:\WORKSPACE\PROI\DEBUG\VC120.IDB
E:\WORKSPACE\PROI\DEBUG\MATRIX.OBJ
^E:\WORKSPACE\PROI\MATRIX.CPP|E:\WORKSPACE\PROI\POLYNOMIAL.CPP
E:\WORKSPACE\PROI\DEBUG\VC120.PDB
E:\WORKSPACE\PROI\DEBUG\VC120.IDB
E:\WORKSPACE\PROI\DEBUG\MATRIX.OBJ
E:\WORKSPACE\PROI\DEBUG\POLYNOMIAL.OBJ
