^E:\WORKSPACE\PROI\DEBUG\MAIN.OBJ|E:\WORKSPACE\PROI\DEBUG\MATRIX.OBJ|E:\WORKSPACE\PROI\DEBUG\POLYNOMIAL.OBJ
E:\WORKSPACE\PROI\DEBUG\PROI1.ILK
E:\WORKSPACE\PROI\DEBUG\PROI1.EXE
E:\WORKSPACE\PROI\DEBUG\PROI1.PDB
